<?xml version="1.0" encoding="utf-8"?>
<!-- Generator: Adobe Illustrator 18.0.0, SVG Export Plug-In . SVG Version: 6.00 Build 0)  -->
<!DOCTYPE svg PUBLIC "-//W3C//DTD SVG 1.1//EN" "http://www.w3.org/Graphics/SVG/1.1/DTD/svg11.dtd">
<svg version="1.1" id="Layer_1" xmlns="http://www.w3.org/2000/svg" xmlns:xlink="http://www.w3.org/1999/xlink" x="0px" y="0px"
	 viewBox="0 0 281.3 272" enable-background="new 0 0 281.3 272" xml:space="preserve">
<g>
	<path fill="#0F0F0F" d="M222.3,88.1c0,1.5,0.3,3.1-0.1,4.5c-1.9,8.6,3.7,13.2,9.2,17.7c1.1,0.9,3.1,1,4.6,0.9
		c6.1-0.6,12.2-1.3,18.3-2.1c3.6-0.5,5.8,0.6,7.5,4c7.6,15.3,8.2,15.8-4.6,27c-6.9,6.1-8.1,12.7-7,20.7c0.3,1.9,1.6,4,3.1,5.3
		c4.8,4.2,10,7.8,14.6,12.1c1.3,1.2,2,4,1.6,5.8c-1.1,4.3-3.1,8.4-4.5,12.7c-1.1,3.4-3.3,4.6-6.8,4.5c-5.8-0.2-11.7-0.1-17.5-0.1
		c-7.2,0-15.2,8.5-14.6,15.7c0.5,6.1,1.3,12.3,2.2,18.3c0.5,3-0.5,4.6-3.3,5.8c-4.5,1.8-8.7,4.2-13.3,5.7c-1.6,0.6-4.3,0.1-5.6-1
		c-7.2-6-7-6-0.6-12.8c5.7-6,9.7-12.8,12.1-20.9c2-6.9,5.8-13.4,8.1-20.2c3.1-9.1,3.1-18.3-0.7-27.4c-0.8-1.9-0.5-4.2-0.7-6.3
		c-1.2-12-5-22.7-15-30.4c-1-0.8-1.7-2-2.2-3.2c-4.7-10.1-12.1-16.8-23.1-19.7c-2.9-0.7-5.3-2.9-8-4.3c-8.1-4.1-16.5-5.7-25.6-3.5
		c-5.1,1.2-10.4,1.4-15.7,1.6c-0.9,0-2.5-2-2.7-3.2c-0.9-4.4-1.7-8.9-1.7-13.3c0-1.9,1.4-4.6,2.9-5.5c4.4-2.6,9.2-4.9,14-6.4
		c1.7-0.5,4.7,0.8,6.2,2.2c4.3,3.9,8,8.5,12.1,12.6c5.2,5.2,17.2,4.3,21.8-1.4c3.7-4.7,7.3-9.5,11.4-13.9c1.2-1.3,4.1-2.2,5.8-1.8
		c4.8,1.2,9.6,3,14.1,5.1c1.5,0.7,3,3,3.3,4.8C222.7,81.1,222.4,84.6,222.3,88.1z"/>
	<path fill="#0F0F0F" d="M113.1,110.7c-5.9,7.2-10.7,14-16.6,19.8c-6.9,6.9-16.2,6-25.1,5.2c-18.7-1.8-31.1-12.2-38.8-28.9
		c-4.7-10.2-7.5-21-8.4-32.2c-0.7-9.5,2.5-18.1,7.3-26C41.4,32.5,55,20.2,70.1,9.2c0.5-0.4,1.2-0.5,3.1-1.2
		c-1.3,2.8-2.1,4.7-2.9,6.5C63.7,30,60.1,45.8,61.8,62.7c0.2,1.7-1.6,3.5-1.9,5.3c-0.3,1.4-0.1,4.2,0.4,4.4c4.5,1.1,5.7,4.9,7.3,8.3
		c5.5,11.5,13.6,20.6,25.5,25.5c4.8,2,10.2,2.6,15.4,3.7C109.8,110.2,111,110.4,113.1,110.7z"/>
	<path fill="#0F0F0F" d="M19.1,72c2.2,9.8,3.8,19.1,6.6,28c2.1,6.6,5.9,12.6,8.9,18.9c1.2,2.5,1.8,5.2,3.1,7.5
		c0.6,1.1,2.2,1.8,3.5,2.2c1.9,0.7,4.3,0.5,5.9,1.6c15.3,11.3,31.5,14.5,49.2,5.8c0.5-0.3,1.2-0.2,2.6-0.5
		c-0.4,11.6-1.6,22.3-9.7,31.1c-11.8,12.8-30.4,15.9-46.2,7.6c-11.9-6.2-21.4-15.1-29.4-25.8c-7.5-10.1-9.1-21.8-7-33.3
		c2.5-13.8,7.2-27.2,11-40.8C17.8,73.6,18.5,73,19.1,72z"/>
	<path fill="#0F0F0F" d="M98.3,162.6c9.8,11.7,11.6,29.8,1,41.9c-7.5,8.6-16.9,12.6-28.2,12.5c-15.9,0-31.2-2.2-42.5-14.5
		c-4.3-4.6-7.2-10.8-9.8-16.6c-5.1-11.6-7.6-24-8.1-37c1,1.4,2.1,2.7,3.1,4.1c6.7,9.8,15.1,17.6,25.7,23.1c3.6,1.9,6.8,4.6,9.9,6.8
		c4-0.3,8.2-0.9,12.4-1c14.4-0.1,26.3-4.9,34.4-17.5c0.4-0.6,0.8-1.1,1.3-1.5C97.6,162.8,98,162.7,98.3,162.6z"/>
	<path fill="#0F0F0F" d="M110.8,184.5c19.3,6.4,23.3,27.4,14.7,42.7c-7.9,14.2-21.7,18.9-36.4,21.8c-13.4,2.7-24.4-2.4-33.8-11
		c-7-6.3-12.8-14-19-21c-0.5-0.6-0.6-1.4-1.2-2.8c1.5,0.4,2.5,0.5,3.3,0.8c9.9,4.6,20.3,6.8,31.1,5.7c4.4-0.4,8.6,3.3,13,0
		c3.6-2.8,7.9-4.8,11.5-7.6c7.6-5.7,13.9-12.5,15.5-22.4C109.8,188.7,110.3,186.8,110.8,184.5z"/>
	<path fill="#0F0F0F" d="M85.6,253.5c8.2-2.8,15.6-4.9,22.6-7.8c17.8-7.4,25.9-21.7,25-38.4c-0.3-4.4-1.9-8.7-3.2-14
		c6.6,0.2,13.3-0.9,18.8,3.7c14.4,12.1,16.6,28.5,5.8,43.9c-3.6,5.1-8.1,9.7-12.8,13.9c-4.8,4.4-10.7,6.2-17.4,6.5
		c-11.7,0.5-22.9-1.4-33.7-5.6C89.2,255.1,87.8,254.4,85.6,253.5z"/>
	<path fill="#0F0F0F" d="M151.2,193.4c11.2-9.6,28.9-5.8,35.8,7c12.2,22.4,1.5,49-23.1,56.8c-6.8,2.1-14,3-21.4,3.6
		c10.8-8.9,20.9-18.5,23.3-32.2C168.3,214.8,164.1,202.1,151.2,193.4z"/>
	<path fill="#0F0F0F" d="M190.6,241.9c10.7-38.3,6.3-49.6-22.2-58.7c3-13.1,19.9-18.3,30.8-10.7c8.5,5.9,13.3,14.3,16,24
		c2.7,9.6,0.7,18.5-4.9,26.6C205.3,230.4,199.2,236.6,190.6,241.9z"/>
	<path fill="#0F0F0F" d="M214.3,154c14.6,13.5,13.4,29.2,6.5,45.7c-0.6,1.4-1.5,2.7-2.8,4c-2.1-11.2-4.2-22.5-13-30.1
		c-8.8-7.6-19.4-10-30.6-5.1c-4.1-11.5,7.8-23,17.3-22.3c6.3,0.5,12.4,3.1,18.6,4.8C211.6,152,213,153,214.3,154z"/>
	<path fill="#0F0F0F" d="M214.3,154c-1.3-1-2.7-2-4-3c-11.2-9.8-21.7-9.3-39.1,2c-7.2-10-0.2-25.2,13.1-27.7
		c24.5-4.5,35.8,12.9,37.8,31.5c0,0.4-0.4,0.8-0.8,1.6C218.9,156.9,216.6,155.4,214.3,154z"/>
	<path fill="#0F0F0F" d="M204.4,124.9c-18.2-4.4-34.2-3.8-40.6,17.6c-9.2-5.1-10.8-17.6-3.8-25.7c11.3-13.2,26.4-13.7,38.5-1.2
		c2.4,2.4,4.3,5.2,6.5,7.9C204.7,123.9,204.6,124.4,204.4,124.9z"/>
	<path fill="#0F0F0F" d="M174.5,103.5c-3.1,1.4-6.3,2.6-9.4,4.1c-9.7,4.7-13.8,12.3-12.6,23c0.2,1.6-0.2,4.5-0.8,4.7
		c-1.8,0.4-4.1,0.2-5.6-0.7c-5.8-3.6-8.3-9.7-7.4-15.8c2.2-16.1,13.6-24.5,29.5-19.3c2.2,0.7,4.2,1.7,6.3,2.6
		C174.5,102.6,174.5,103.1,174.5,103.5z"/>
	<path fill="#0F0F0F" d="M143.2,102.1c-11,11.5-12.8,23.1-1.3,35.1c-3.4,2.7-6.8,3.2-10.4,1.6c-8.9-3.9-13.8-14.4-11.4-24.1
		c2-8.3,11.4-14.4,20.8-13.6C141.4,101.1,141.8,101.5,143.2,102.1z"/>
	<path fill="#0F0F0F" d="M116.7,115.7c-0.3,12.6,2.4,23,15.7,27c-2.2,5.5-7.2,8.1-12.4,6.7c-8.3-2.2-13.9-11-12.3-19.6
		C108.7,124.1,111,119.1,116.7,115.7z"/>
	<path fill="#0F0F0F" d="M103.7,139.5c6,9.3,12.9,16.7,25.2,12.1c0.9,9.1-5.2,13.9-13.8,11.9C105.5,161.2,99.4,147.2,103.7,139.5z"
		/>
	<path fill="#0F0F0F" d="M103.7,161.1c16.5,6.5,16.5,6.5,25.3,1.6c4.1,4.2,2.6,10.6-2.8,12.7C116,179.3,105.3,172.7,103.7,161.1z"/>
	<path fill="#0F0F0F" d="M139.3,181c-6.9,5.5-14.2,7.2-22,1.9c-1.5-1-2.7-2.3-5.1-4.4c10-1.1,20.9,2,23.8-11.2
		C141.3,171.7,140.7,176.3,139.3,181L139.3,181z"/>
	<path fill="#0F0F0F" d="M139.3,181c1.3-3.5,2.6-7.1,3.9-10.8c4.4,0.9,7.1,5.1,5.7,10.2c-2.2,7.8-9.5,11.4-16.8,8.8
		C134.4,186.6,136.8,183.8,139.3,181C139.3,181,139.3,181,139.3,181z"/>
	<path fill="#0F0F0F" d="M147.9,189.3c4.2-6.6,6.6-12.9,0.6-19.8c0.4-0.4,0.7-0.8,1.1-1.2c2.1,0.6,4.5,0.7,6.2,1.8
		c3.8,2.6,4.3,6.7,3.2,10.8C157.6,186,153.7,188.5,147.9,189.3z"/>
	<path fill="#0F0F0F" d="M161.6,181.3c-0.6-6.5,0.9-13.3-7-15.6c3.8-4,7-3.9,10-0.5C168.9,170.1,168,176.5,161.6,181.3z"/>
	<path fill="#0F0F0F" d="M169.2,168.4c-2.7-6-5.8-10-12.2-9.6c1.4-4.9,4.4-5.4,7.8-4.4C169.6,155.8,171.3,160.4,169.2,168.4z"/>
	<path fill="#0F0F0F" d="M166.2,150.6c-3.9,0.9-7.8,1.8-12.2,2.8c-1.8-3.2,0.1-5.3,3.3-6.7C161.2,144.9,164.4,146.5,166.2,150.6z"/>
	<path fill="#0F0F0F" d="M159.1,142.7c-2.3,1.2-4.1,1.8-5.4,2.9c-1.3,1.1-2.1,2.8-3.4,4.5c-2.6-2.3-2.6-4.7-0.6-6.9
		C152.2,140.5,155.2,140,159.1,142.7z"/>
	<path fill="#0F0F0F" d="M147.3,140c-0.8,3-1.5,6.1-2.3,9.1c-0.4,0.2-0.7,0.4-1.1,0.6c-0.8-1.6-2.5-3.6-2.1-4.9
		c0.7-2.2,2.8-3.9,4.3-5.8C146.6,139.4,147,139.7,147.3,140z"/>
	<path fill="#0F0F0F" d="M140.8,152.2c-6-2.6-6.4-5-2.2-8.5C139.3,146.4,139.9,148.9,140.8,152.2z"/>
</g>
</svg>
