<?xml version="1.0" encoding="iso-8859-1"?>
<!-- Generator: Adobe Illustrator 18.0.0, SVG Export Plug-In . SVG Version: 6.00 Build 0)  -->
<!DOCTYPE svg PUBLIC "-//W3C//DTD SVG 1.1//EN" "http://www.w3.org/Graphics/SVG/1.1/DTD/svg11.dtd">
<svg version="1.1" id="Capa_1" xmlns="http://www.w3.org/2000/svg" xmlns:xlink="http://www.w3.org/1999/xlink" x="0px" y="0px"
	 viewBox="10 0 492.267 482.267" style="enable-background:new 0 0 482.267 482.267;" xml:space="preserve">
<g>
	<path stroke-width="5" fill="none" stroke="#000000" stroke-miterlimit="1" d="M373.669,193.281l-10.699,10.701c-3.292,3.292-5.07,7.694-5.007,12.396c0.063,4.659,1.931,9.058,5.259,12.386
		c3.393,3.393,7.876,5.262,12.625,5.262c4.612,0,8.931-1.779,12.158-5.008l10.702-10.701l11.076,11.076
		c3.392,3.393,7.876,5.261,12.624,5.261c4.612,0,8.931-1.778,12.158-5.007c6.764-6.763,6.65-17.88-0.253-24.783l-11.075-11.077
		l10.7-10.701c3.292-3.292,5.07-7.694,5.007-12.397c-0.063-4.659-1.931-9.058-5.259-12.386c-3.393-3.393-7.876-5.262-12.625-5.262
		c-4.612,0-8.931,1.779-12.159,5.008L398.2,168.75l-11.076-11.076c-3.393-3.393-7.876-5.261-12.624-5.261
		c-4.612,0-8.931,1.779-12.159,5.008c-3.292,3.292-5.07,7.694-5.006,12.397c0.063,4.659,1.931,9.058,5.259,12.386L373.669,193.281z
		 M368.352,163.431c1.623-1.624,3.807-2.518,6.148-2.518c2.478,0,4.827,0.984,6.614,2.771l14.081,14.081
		c0.797,0.797,1.878,1.245,3.005,1.245c1.127,0,2.208-0.448,3.005-1.245l13.706-13.707c1.624-1.623,3.808-2.518,6.149-2.518
		c2.477,0,4.827,0.984,6.614,2.772c1.754,1.753,2.737,4.059,2.771,6.491c0.032,2.389-0.862,4.616-2.518,6.272l-13.705,13.706
		c-1.66,1.66-1.66,4.35,0,6.01l14.08,14.081c3.588,3.589,3.701,9.315,0.252,12.763c-1.623,1.623-3.806,2.518-6.147,2.518
		c-2.478,0-4.827-0.984-6.614-2.771l-14.081-14.081c-0.83-0.83-1.917-1.245-3.005-1.245c-1.088,0-2.176,0.415-3.005,1.245
		l-13.708,13.707c-1.623,1.624-3.807,2.518-6.147,2.518c-2.478,0-4.827-0.984-6.614-2.772c-1.754-1.754-2.737-4.059-2.771-6.491
		c-0.032-2.388,0.862-4.616,2.519-6.271l13.704-13.707c1.659-1.66,1.659-4.35,0-6.01l-14.08-14.082
		c-1.754-1.753-2.737-4.059-2.77-6.491C365.802,167.314,366.695,165.087,368.352,163.431z"/>
	<path stroke-width="5" fill="none" stroke="#000000" stroke-miterlimit="1" d="M343.463,198.723c4.455,0.779,7.065,1.402,7.09,1.408c0.334,0.08,0.667,0.118,0.996,0.118c1.919,0,3.661-1.309,4.129-3.257
		c0.55-2.281-0.853-4.576-3.135-5.125c-0.115-0.027-2.867-0.687-7.617-1.517c-2.303-0.406-4.514,1.143-4.918,3.455
		C339.604,196.117,341.15,198.319,343.463,198.723z"/>
	<path stroke-width="5" fill="none" stroke="#000000" stroke-miterlimit="1" d="M285.966,187.999c-5.519,0.573-10.919,1.401-16.051,2.46c-2.298,0.474-3.777,2.722-3.303,5.021
		c0.414,2.009,2.184,3.392,4.157,3.392c0.285,0,0.574-0.029,0.864-0.089c4.855-1.002,9.972-1.786,15.211-2.33
		c2.334-0.242,4.03-2.331,3.788-4.666C290.39,189.453,288.312,187.757,285.966,187.999z"/>
	<path stroke-width="5" fill="none" stroke="#000000" stroke-miterlimit="1" d="M187.518,239.285c-3.996,3.322-8.038,6.683-12.143,10.052c-1.813,1.489-2.077,4.167-0.588,5.981
		c0.841,1.023,2.06,1.553,3.288,1.553c0.948,0,1.903-0.316,2.694-0.965c4.117-3.38,8.173-6.752,12.182-10.085l-2.691-3.29
		L187.518,239.285z"/>
	<path stroke-width="5" fill="none" stroke="#000000" stroke-miterlimit="1" d="M129.3,283.717c-4.463,2.875-8.945,5.601-13.321,8.101c-2.038,1.165-2.746,3.761-1.582,5.798
		c0.785,1.373,2.219,2.143,3.694,2.143c0.715,0,1.439-0.181,2.104-0.561c4.507-2.575,9.118-5.38,13.708-8.336
		c1.973-1.271,2.542-3.901,1.271-5.874C133.903,283.014,131.273,282.447,129.3,283.717z"/>
	<path stroke-width="5" fill="none" stroke="#000000" stroke-miterlimit="1" d="M216.379,215.937c-3.809,2.909-7.902,6.139-12.516,9.876c-1.824,1.477-2.105,4.153-0.628,5.977
		c0.84,1.037,2.067,1.575,3.306,1.575c0.939,0,1.885-0.31,2.672-0.947c4.55-3.685,8.582-6.867,12.326-9.726
		c1.865-1.425,2.222-4.092,0.798-5.957C220.912,214.87,218.245,214.513,216.379,215.937z"/>
	<path stroke-width="5" fill="none" stroke="#000000" stroke-miterlimit="1" d="M249.008,196.539c-5.238,2.026-10.238,4.401-14.861,7.058c-2.035,1.169-2.736,3.768-1.566,5.802
		c0.786,1.368,2.217,2.133,3.689,2.133c0.719,0,1.446-0.182,2.114-0.566c4.249-2.442,8.855-4.629,13.691-6.499
		c2.189-0.847,3.277-3.308,2.431-5.497C253.658,196.781,251.196,195.693,249.008,196.539z"/>
	<path stroke-width="5" fill="none" stroke="#000000" stroke-miterlimit="1" d="M63.662,314.014c-2.356,0.658-4.75,1.282-7.115,1.854c-2.281,0.553-3.683,2.85-3.131,5.131
		c0.472,1.945,2.211,3.251,4.127,3.251c0.331,0,0.668-0.039,1.004-0.12c2.46-0.596,4.95-1.245,7.4-1.929
		c2.261-0.631,3.582-2.976,2.951-5.236C68.268,314.704,65.924,313.383,63.662,314.014z"/>
	<path stroke-width="5" fill="none" stroke="#000000" stroke-miterlimit="1" d="M86.666,209.713c1.475-5.487-2.133-10.403-5.953-15.607c-1.334-1.818-2.714-3.698-3.984-5.71
		c-5.098-8.071-10.68-9.766-14.464-9.766c-11.196,0-19.38,14.059-19.38,20.035c0,6.78,9.329,22.842,24.038,22.842
		c2.961,0,5.961-0.656,8.915-1.948C79.818,217.818,85.271,214.903,86.666,209.713z M78.457,207.506
		c-0.116,0.433-0.895,2.02-6.025,4.266c-1.874,0.82-3.728,1.235-5.509,1.235c-9.52,0-15.538-11.472-15.538-14.336
		c0.069-2.51,5.56-11.541,10.88-11.541c2.984,0,5.604,3.157,7.276,5.805c1.43,2.264,2.966,4.355,4.32,6.201
		C76.21,202.336,78.872,205.963,78.457,207.506z"/>
	<path stroke-width="5" fill="none" stroke="#000000" stroke-miterlimit="1" d="M449.092,84.063c-0.047-0.014-0.095-0.026-0.142-0.038L314.346,50.332c-0.65-0.163-1.328-0.169-1.98-0.02L169.437,83.021
		L41.127,50.797c-0.057-0.014-0.113-0.027-0.171-0.039c-3.494-0.726-6.844-1.094-9.955-1.094C19.617,49.664,0.453,54.867,0,89.769
		v269.855c0,18.208,12.073,32.288,33.123,38.628c0.064,0.02,0.129,0.037,0.193,0.053l134.604,33.692
		c0.65,0.163,1.328,0.169,1.98,0.021l142.93-32.71l128.268,32.158c0.056,0.014,0.112,0.027,0.169,0.039
		c3.508,0.729,6.868,1.098,9.989,1.098c11.387,0,30.556-5.195,31.008-40.045l0.002-269.852
		C482.267,104.478,469.864,90.032,449.092,84.063z M473.765,392.503c-0.273,20.968-7.845,31.6-22.508,31.6
		c-2.518,0-5.269-0.304-8.178-0.903l-129.17-32.384c-0.648-0.162-1.327-0.169-1.981-0.021l-142.931,32.71L35.48,390.086
		C25.358,387.018,8.5,378.997,8.5,359.625v-269.8c0.273-21.008,7.843-31.661,22.501-31.661c2.507,0,5.246,0.302,8.143,0.899
		l129.212,32.451c0.651,0.164,1.33,0.171,1.983,0.021l142.931-32.71l133.543,33.427c8.162,2.358,26.954,10.015,26.954,30.454
		L473.765,392.503z"/>
	<path stroke-width="5" fill="none" stroke="#000000" stroke-miterlimit="1" d="M445.932,104.923c-0.072-0.022-0.146-0.043-0.219-0.061L314.127,71.925c-0.649-0.162-1.327-0.169-1.98-0.02l-142.931,32.71
		L38.618,71.925c-0.103-0.026-0.208-0.048-0.313-0.066c-1.237-0.212-2.43-0.32-3.542-0.32c-5.14,0-13.763,2.368-13.763,18.23
		v269.855c0,11.879,10.551,15.949,15.057,17.686c0.162,0.063,0.328,0.115,0.497,0.158l131.586,32.937
		c0.65,0.162,1.327,0.169,1.98,0.02l142.931-32.71l130.596,32.686c0.103,0.026,0.208,0.048,0.313,0.066
		c1.238,0.212,2.43,0.32,3.543,0.32c5.14,0,13.762-2.368,13.762-18.23l0.002-269.852
		C461.267,109.646,449.725,106.091,445.932,104.923z M452.767,122.706l-0.001,199.696c-8.686-7.781-23.671-15.608-41.536-17.78
		c-14.703-1.79-36.887-0.225-59.069,17.381c-11.169,8.863-22.988,10.013-34.815,6.796v-133c1.862,0.099,3.728,0.213,5.595,0.359
		c0.113,0.009,0.226,0.013,0.337,0.013c2.196,0,4.058-1.691,4.232-3.919c0.183-2.34-1.565-4.385-3.906-4.568
		c-2.088-0.163-4.175-0.289-6.258-0.396V81.493l126.19,31.586C451.193,115.462,452.767,118.653,452.767,122.706z M308.845,368.483
		v1.475L173.422,400.95v-0.617v-79.12c13.383-7.295,23.612-16.413,31.965-23.866c14.177-12.65,21.405-18.515,30.769-13.588
		c6.057,3.188,13.82,9.754,22.81,17.358c14.455,12.226,31.747,26.842,49.88,33.821V368.483z M264.454,294.627
		c-9.369-7.925-17.462-14.769-24.34-18.389c-14.989-7.891-26.761,2.608-40.387,14.767c-7.425,6.625-15.833,14.121-26.306,20.446
		V112.849v-0.477L308.845,81.38v105.634c-0.448-0.006-0.901-0.018-1.347-0.021c-2.313-0.015-4.263,1.875-4.278,4.222
		c-0.016,2.347,1.874,4.263,4.222,4.278c0.465,0.003,0.936,0.016,1.403,0.022v130.263
		C293.312,319.036,278.029,306.109,264.454,294.627z M134.177,104.607l30.745,7.696v0.547v150.31
		c-1.451-1.803-4.082-2.12-5.916-0.694c-4.381,3.409-8.478,6.498-12.523,9.444c-1.897,1.382-2.315,4.04-0.934,5.938
		c0.832,1.142,2.126,1.749,3.439,1.749c0.867,0,1.743-0.265,2.498-0.815c4.119-3,8.286-6.142,12.738-9.606
		c0.268-0.208,0.494-0.447,0.697-0.701v47.584c-6.944,3.342-14.724,6.08-23.582,7.767c-12.621,2.404-21.409-0.271-26.86-8.177
		c-13.906-20.166-2.44-67.134,5.941-80.754c21.51-34.953,11.005-49.618-0.117-65.143c-3.437-4.796-6.989-9.756-9.64-15.526
		C100.877,132.923,133.506,105.172,134.177,104.607z M29.5,359.625V89.769c0-9.73,3.423-9.73,5.263-9.73
		c0.591,0,1.248,0.058,1.955,0.173l87.566,21.919c-9.805,9.481-31.393,33.772-21.345,55.643c2.991,6.509,6.785,11.806,10.454,16.927
		c10.245,14.301,18.337,25.596-0.211,55.737c-7.571,12.303-16.644,45.402-12.725,70.702c-0.929-0.245-1.94-0.198-2.878,0.241
		c-4.726,2.21-9.528,4.261-14.275,6.097c-2.189,0.847-3.277,3.308-2.431,5.497c0.652,1.685,2.26,2.718,3.965,2.718
		c0.51,0,1.028-0.092,1.532-0.287c4.927-1.905,9.909-4.033,14.809-6.324c0.326-0.152,0.613-0.351,0.879-0.568
		c1.263,4.428,3.028,8.487,5.422,11.959c5.131,7.441,15.447,15.511,35.448,11.702c8.1-1.543,15.388-3.916,21.992-6.796v74.956v0.505
		l-126.046-31.55C31.96,366.585,29.5,364.039,29.5,359.625z M447.503,402.288c-0.592,0-1.249-0.058-1.957-0.173l-128.201-32.087
		v-1.545v-30.875c3.896,0.927,7.817,1.439,11.742,1.439c9.514,0,19.059-3.006,28.356-10.385
		c19.883-15.78,39.664-17.193,52.76-15.602c18.261,2.221,34.53,11.724,40.568,19.538c0.53,0.686,1.23,1.162,1.994,1.421l0,58.539
		C452.765,402.288,449.342,402.288,447.503,402.288z"/>
</g>
<g>
</g>
<g>
</g>
<g>
</g>
<g>
</g>
<g>
</g>
<g>
</g>
<g>
</g>
<g>
</g>
<g>
</g>
<g>
</g>
<g>
</g>
<g>
</g>
<g>
</g>
<g>
</g>
<g>
</g>
</svg>
